…
**Read in the data**
--------------------

``` r
setwd("C:/Users/edika/Desktop/key backup/Michael") #working directory
source("TEMAP2_only_functions.R")

data_file<-"Example.xlsx"            # Input data are in a xlsx file

read_excel(data_file, sheet = "Inputs")[, c("Inputs", "Specifications")]
```

    ## # A tibble: 28 x 2
    ##    Inputs                             Specifications
    ##    <chr>                              <chr>         
    ##  1 1. Models                          <NA>          
    ##  2 TE-4                               YES           
    ##  3 TE-2                               YES           
    ##  4 TE-1                               YES           
    ##  5 Independence Model                 YES           
    ##  6 <NA>                               <NA>          
    ##  7 2. Fit method                      <NA>          
    ##  8 CHI2 / G2                          CHI2          
    ##  9 <NA>                               <NA>          
    ## 10 3. Parameters for true preferences <NA>          
    ## # ... with 18 more rows
…
